Speaking Simple Features
…
## $o
## # A tibble: 1 × 3
##            name st_sfc.st_linestring.cbind.xy_traverse..zz...    object_
## *        <fctr>                              <simple_feature>      <chr>
## 1 epic traverse                             <LINESTRINGZ(...> BDVYoUJiBe
## 
## $b
## # A tibble: 1 × 1
##      object_
##        <chr>
## 1 BDVYoUJiBe
## 
## $bXv
## # A tibble: 35 × 2
##    order_    vertex_
##     <int>      <chr>
## 1       1 ul3DdMnpjY
## 2       2 wh7eJJLwco
## 3       3 mPjyNeBn08
## 4       4 tiGlXkfKH0
## 5       5 nAbN0tdZFk
## 6       6 FqVHWqsYOn
## 7       7 YAqUDQ1AP0
## 8       8 txzNmXBiXk
## 9       9 YwBxUhTm4J
## 10     10 c750lEEJZL
## # ... with 25 more rows
## 
## $v
## # A tibble: 35 × 4
##       x_    y_    z_    vertex_
##    <dbl> <dbl> <dbl>      <chr>
## 1  0.161 0.000   114 ul3DdMnpjY
## 2  0.186 0.029   120 wh7eJJLwco
## 3  0.202 0.037   122 mPjyNeBn08
## 4  0.228 0.053   128 tiGlXkfKH0
## 5  0.252 0.053   130 nAbN0tdZFk
## 6  0.270 0.060   132 FqVHWqsYOn
## 7  0.285 0.094   138 YAqUDQ1AP0
## 8  0.292 0.121   142 txzNmXBiXk
## 9  0.309 0.155   146 YwBxUhTm4J
## 10 0.349 0.200   146 c750lEEJZL
## # ... with 25 more rows
## 
## attr(,"class")
## [1] "map_table" "list"
